snr_out_cgm_mean,snr_out_agm_mean,snr_out_cgm_std,snr_out_agm_std
0.0852806525153399,0.7651566297649113,0.17855844088846534,0.3057237711020059
2.9098791351251223,4.3175906492287695,0.2042777370212238,0.09186961765580991
6.796930992408012,8.21762435119707,0.07845213720345437,0.06245170481515731
