epsilon,sigma_cgm,sigma_agm,snr_in_cgm_mean,snr_in_agm_mean,snr_in_cgm_std,snr_in_agm_std
0.2,26.494012634252368,18.988800777841746,-12.481213136129607,-9.588209116342597,0.1145624739872865,0.1145624739872865
0.3,17.66267508950158,12.992382586202538,-8.959387955015986,-6.292034369300531,0.11456247398728588,0.11456247398728607
0.5,10.597605053700947,8.057618162678452,-4.522412962688857,-2.1423920152486615,0.11456247398728603,0.11456247398728606
1.0,5.298802526850474,4.2246789419396995,1.498186950590767,3.4658674462305563,0.11456247398728604,0.11456247398728515
