snr_out_cgm_mean,snr_out_agm_mean,snr_out_cgm_std,snr_out_agm_std
0.22862611616314288,1.3610194558782465,0.3183332800661829,0.2664028182985469
1.60907341505985,2.726684312372505,0.2607489059652068,0.22657316874410544
3.5470943775364057,4.793668784435304,0.23420606672658864,0.1830010244611368
7.002116699351563,8.287060100119756,0.16322620853186884,0.15103336205864018
